Place,Name,Division,BirthYear,Country,BodyweightKg,Squat1Kg,Squat2Kg,Squat3Kg,Best3SquatKg,Bench1Kg,Bench2Kg,Bench3Kg,Best3BenchKg,Deadlift1Kg,Deadlift2Kg,Deadlift3Kg,Best3DeadliftKg,TotalKg,WeightClassKg,Sex,CyrillicName,Event,Equipment,BirthDate
1,Evgeniya Maksimova,Open,1995,Russia,46.7,,,125.5,125.5,,,,65,,,,137.5,328,47,F,Евгения Максимова,SBD,Raw,
2,Mariia Zabelina,Open,1997,Russia,46.9,,,,115,,,,67.5,,,,145,327.5,47,F,Мария Забелина,SBD,Raw,
3,Anna Klisch,Open,1989,Russia,46.2,,,,107.5,,,,67.5,,,,150,325,47,F,Анна Клищ,SBD,Raw,
4,Alisa Zhilkina,Open,1995,Russia,46.25,,,,112.5,,,,75,,,,132.5,320,47,F,Алиса Жилкина,SBD,Raw,
5,Marina Kotelnikova,Open,1991,Russia,46.9,,,,100,,,,85,,,,125,310,47,F,Марина Котельникова,SBD,Raw,
6,Mariya Osipova,Open,1992,Russia,46.45,,,,107.5,,,,60,,,,125,292.5,47,F,Мария Осипова,SBD,Raw,
7,Natalya Gorbacheva,Open,1997,Russia,46.3,,,,105,,,,57.5,,,,120,282.5,47,F,Наталья Горбачева,SBD,Raw,
8,Anzhelika Nazarova,Open,1991,Russia,46.05,,,,92.5,,,,42.5,,,,125,260,47,F,Анжелика Назарова,SBD,Raw,
9,Irina Guzenkova,Open,1989,Russia,46.2,,,,90,,,,47.5,,,,120,257.5,47,F,Ирина Гузенкова,SBD,Raw,
10,Anastasiya Tikhomirova,Open,1997,Russia,45.7,,,,80,,,,57.5,,,,112.5,250,47,F,Анастасия Тихомирова,SBD,Raw,
11,Yuliya Noskova,Open,1993,Russia,46.7,,,,80,,,,57.5,,,,95,232.5,47,F,Юлия Носкова,SBD,Raw,
12,Anastasiya Verkhorubova,Open,1993,Russia,45.55,,,,75,,,,47.5,,,,105,227.5,47,F,Анастасия Верхорубова,SBD,Raw,
DQ,Inna Babenko,Open,1975,Ukraine,46,,,,,,,,,,,,,,47,F,Инна Бабенко,SBD,Raw,
1,Elizaveta Nikitina,Open,2001,Russia,51.8,,,,145,,,,90,,,,160,395,52,F,Елизавета Никитина,SBD,Raw,
2,Natalia Salnikova,Open,1986,Russia,51.75,,,,135,,,,90,,,,145,370,52,F,Наталья Сальникова,SBD,Raw,
3,Tatyana Ovchinnikova #4,Open,1989,Russia,50.55,,,,132.5,,,,85,,,,145,362.5,52,F,Татьяна Овчинникова,SBD,Raw,
4,Elena Zabelina,Open,1983,Russia,51.35,,,,125,,,,90,,,,135,350,52,F,Елена Забелина,SBD,Raw,
5,Marina Gayduchenok,Open,1984,Russia,51.8,,,,107.5,,,,72.5,,,,157.5,337.5,52,F,Марина Гайдученок,SBD,Raw,
6,Anna Komlaeva,Open,1979,Russia,51.2,,,,115,,,,72.5,,,,145,332.5,52,F,Анна Комлаева,SBD,Raw,
7,Kseniya Almasova,Open,1992,Russia,51.95,,,,125,,,,62.5,,,,140,327.5,52,F,Ксения Алмасова,SBD,Raw,
8,Olga Sizikova,Open,1993,Russia,51.8,,,,102.5,,,,77.5,,,,130,310,52,F,Ольга Сизикова,SBD,Raw,
9,Stefaniya Dashevskaya,Open,1996,Russia,51.75,,,,105,,,,65,,,,130,300,52,F,Стефания Дашевская,SBD,Raw,
10,Elena Volkova,Open,1989,Russia,49.5,,,,105,,,,60,,,,125,290,52,F,Елена Волкова,SBD,Raw,
11,Aleksandra Efimova,Open,1989,Russia,51.6,,,,105,,,,67.5,,,,117.5,290,52,F,Александра Ефимова,SBD,Raw,
12,Ekaterina Sheluchenko,Open,1996,Russia,51.5,,,,110,,,,57.5,,,,115,282.5,52,F,Екатерина Шелученко,SBD,Raw,
13,Nadezhda Grekova,Open,1986,Ukraine,51.1,,,,82.5,,,,50,,,,135,267.5,52,F,Надежда Грекова,SBD,Raw,
14,Viktoriya Zimina,Open,1994,Russia,51.15,,,,95,,,,60,,,,110,265,52,F,Виктория Зимина,SBD,Raw,
1,Inna Filimonova #1,Open,1976,Russia,56.65,,,,172.5,,,,80,,,,177.5,430,57,F,Инна Филимонова,SBD,Raw,
2,Olga Golubeva,Open,1970,Russia,56.35,,,,140,,,,105,,,,182.5,427.5,57,F,Ольга Голубева,SBD,Raw,
3,Anna Ryzhkova,Open,1986,Russia,56.7,,,,147.5,,,,92.5,,,,170,410,57,F,Анна Рыжкова,SBD,Raw,
4,Alena Zubova,Open,1997,Russia,56.95,,,,155,,,,77.5,,,,165,397.5,57,F,Алена Зубова,SBD,Raw,
5,Irina Poletaeva,Open,1982,Russia,56.15,,,,132.5,,,,100,,,,155,387.5,57,F,Ирина Полетаева,SBD,Raw,
6,Yuliya Khodneva,Open,1997,Russia,56.85,,,,135,,,,85,,,,155,375,57,F,Юлия Ходнева,SBD,Raw,
7,Irina Zemtsova,Open,1981,Russia,54.75,,,,122.5,,,,72.5,,,,147.5,342.5,57,F,Ирина Земцова,SBD,Raw,
8,Elena Kosikhina,Open,1987,Russia,55.1,,,,120,,,,60,,,,145,325,57,F,Елена Косихина,SBD,Raw,
9,Yuliya Martynenko,Open,1982,Russia,56.5,,,,120,,,,70,,,,135,325,57,F,Юлия Мартыненко,SBD,Raw,
10,Polina Medvedeva,Open,1996,Russia,56.7,,,,125,,,,65,,,,135,325,57,F,Полина Медведева,SBD,Raw,
11,Nino Sukhova,Open,1985,Russia,55.55,,,,117.5,,,,57.5,,,,145,320,57,F,Нино Сухова,SBD,Raw,
12,Natalya Rodicheva,Open,1975,Russia,56.7,,,,115,,,,55,,,,140,310,57,F,Наталья Родичева,SBD,Raw,
13,Oksana Yastrebkova,Open,1990,Russia,55.85,,,,120,,,,57.5,,,,122.5,300,57,F,Оксана Ястребкова,SBD,Raw,
14,Anastasiya Koshechkina,Open,1993,Ukraine,55.25,,,,107.5,,,,60,,,,127.5,295,57,F,Анастасия Кошечкина,SBD,Raw,
15,Anna Goryacheva,Open,1988,Russia,57,,,,107.5,,,,57.5,,,,130,295,57,F,Анна Горячева,SBD,Raw,
16,Elena Boldysh,Open,1981,Russia,57,,,,92.5,,,,65,,,,135,292.5,57,F,Елена Болдыш,SBD,Raw,
17,Mariya Panova,Open,1991,Russia,54.75,,,,110,,,,60,,,,120,290,57,F,Мария Панова,SBD,Raw,
DQ,Ekaterina Marchenko,Open,1986,Russia,56.75,,,,100,,,,70,,,,,,57,F,Екатерина Марченко,SBD,Raw,
1,Galina Abramova,Open,1989,Russia,61.95,,,,150,,,,77.5,,,,200,427.5,63,F,Галина Абрамова,SBD,Raw,
2,Ekaterina Efimova,Open,1982,Russia,62.3,,,,160,,,,95,,,,160,415,63,F,Екатерина Ефимова,SBD,Raw,
3,Yuliya Vavilova,Open,1979,Russia,61.9,,,,150,,,,85,,,,170,405,63,F,Юлия Вавилова,SBD,Raw,
4,Elena Lutsenko,Open,1963,Russia,63,,,,135,,,,102.5,,,,150,387.5,63,F,Елена Луценко,SBD,Raw,
5,Yekateryna Prokopova,Open,1994,Ukraine,62,,,,140,,,,92.5,,,,150,382.5,63,F,Екатерина Прокопова,SBD,Raw,
6,Nadezhda Davydova,Open,1989,Russia,62.65,,,,135,,,,92.5,,,,150,377.5,63,F,Надежда Давыдова,SBD,Raw,
7,Kseniya Mokhova,Open,1986,Russia,60.85,,,,140,,,,80,,,,150,370,63,F,Ксения Мохова,SBD,Raw,
8,Viktoriya Kolesnikova,Open,1996,Russia,61.05,,,,127.5,,,,90,,,,145,362.5,63,F,Виктория Колесникова,SBD,Raw,
9,Evgeniya Kosova,Open,1984,Russia,61.2,,,,125,,,,75,,,,152.5,352.5,63,F,Евгения Косова,SBD,Raw,
10,Tatyana Nikolaeva,Open,1982,Russia,62.3,,,,112.5,,,,75,,,,157.5,345,63,F,Татьяна Николаева,SBD,Raw,
11,Antonina Zhukova,Open,1997,Russia,61.3,,,,132.5,,,,60,,,,150,342.5,63,F,Антонина Жукова,SBD,Raw,
12,Kseniya Perevozova,Open,1997,Russia,61.3,,,,140,,,,70,,,,130,340,63,F,Ксения Перевозова,SBD,Raw,
13,Mariya Filippova,Open,1992,Russia,62.75,,,,120,,,,77.5,,,,142.5,340,63,F,Мария Филиппова,SBD,Raw,
14,Kseniya Demchinskaya,Open,1997,Russia,63,,,,117.5,,,,77.5,,,,137.5,332.5,63,F,Ксения Демчинская,SBD,Raw,
15,Natalya Mukhomor,Open,1985,Russia,61.85,,,,115,,,,75,,,,135,325,63,F,Наталья Мухомор,SBD,Raw,
16,Margarita Leonova,Open,1995,Russia,62.8,,,,115,,,,55,,,,115,285,63,F,Маргарита Леонова,SBD,Raw,
DQ,Dina Batalova,Open,1992,Russia,61.3,,,,,,,,95,,,,150,,63,F,Дина Баталова,SBD,Raw,
1,Yuliya Pogodina,Open,1997,Russia,68,,,,160,,,,100,,,,202.5,462.5,72,F,Юлия Погодина,SBD,Raw,
2,Yuliya Zaytseva,Open,1987,Russia,71.25,,,,157.5,,,,115,,,,190,462.5,72,F,Юлия Зайцева,SBD,Raw,
3,Yuliya Kamorina,Open,1987,Russia,71.5,,,,152.5,,,,105,,,,160,417.5,72,F,Юлия Каморина,SBD,Raw,
4,Marina Gnusaryova,Open,1993,Russia,70.35,,,,150,,,,77.5,,,,175,402.5,72,F,Марина Гнусарёва,SBD,Raw,
5,Lyubov Vanyukhina,Open,1991,Russia,70.8,,,,145,,,,80,,,,162.5,387.5,72,F,Любовь Ванюхина,SBD,Raw,
6,Ekaterina Rusina,Open,1983,Russia,71.15,,,,140,,,,90,,,,150,380,72,F,Екатерина Русина,SBD,Raw,
7,Olesya Pugach,Open,1983,Russia,70.45,,,,135,,,,75,,,,155,365,72,F,Олеся Пугач,SBD,Raw,
8,Aleksandra Budnik,Open,1989,Russia,70.5,,,,140,,,,80,,,,145,365,72,F,Александра Будник,SBD,Raw,
9,Margarita Guzarevich,Open,1997,Russia,66.9,,,,132.5,,,,80,,,,140,352.5,72,F,Маргарита Гузаревич,SBD,Raw,
10,Kseniya Morozova,Open,1988,Russia,70.6,,,,120,,,,85,,,,140,345,72,F,Ксения Морозова,SBD,Raw,
11,Olga Melnikova,Open,1978,Russia,69.85,,,,110,,,,77.5,,,,155,342.5,72,F,Ольга Мельникова,SBD,Raw,
12,Sakhayana Zakharova,Open,1995,Russia,71.95,,,,120,,,,67.5,,,,125,312.5,72,F,Сахаяна Захарова,SBD,Raw,
DQ,Amaliya Kazak,Open,1995,Russia,72,,,,,,,,,,,,,,72,F,Амалия Казак,SBD,Raw,
1,Angelina Elovikova,Open,1993,Russia,77.15,,,210,210,,,,115,220,230,240,240,565,84,F,Ангелина Еловикова,SBD,Raw,
2,Anna Dymina,Open,1989,Russia,77.95,,,,172.5,,,,95,,,,200,467.5,84,F,Анна Дымина,SBD,Raw,
3,Zinaida Ursaki,Open,1988,Russia,76,,,,185,,,,100,,,,167.5,452.5,84,F,Зинаида Урсаки,SBD,Raw,
4,Yuliya Shutova,Open,1986,Russia,79.3,,,,170,,,,92.5,,,,170,432.5,84,F,Юлия Шутова,SBD,Raw,
5,Lyudmila Meller,Open,1981,Russia,82.35,,,,150,,,,80,,,,185,415,84,F,Людмила Меллер,SBD,Raw,
6,Anastasiya Melnikova #1,Open,1996,Russia,82.85,,,,175,,,,90,,,,150,415,84,F,Анастасия Мельникова,SBD,Raw,
7,Anna Teslina,Open,1999,Russia,74.45,,,,165,,,,77.5,,,,170,412.5,84,F,Анна Теслина,SBD,Raw,
8,Yuliya Gorelova,Open,1987,Russia,83.1,,,,145,,,,85,,,,180,410,84,F,Юлия Горелова,SBD,Raw,
9,Ekaterina Kopeyka,Open,1997,Russia,83.45,,,,145,,,,75,,,,145,365,84,F,Екатерина Копейка,SBD,Raw,
10,Svetlana Buryan,Open,1970,Russia,83.55,,,,130,,,,67.5,,,,160,357.5,84,F,Светлана Бурьян,SBD,Raw,
11,Olga Avdonina,Open,1976,Russia,80.4,,,,130,,,,77.5,,,,145,352.5,84,F,Ольга Авдонина,SBD,Raw,
DQ,Anna Morozova,Open,1987,Russia,74.9,,,,145,,,,,,,,,,84,F,Анна Морозова,SBD,Raw,
1,Daria Efimtseva,Open,2000,Russia,144.6,,252.5,260,260,,148,150,150,,,220.5,220.5,630.5,84+,F,Дарья Ефимцева,SBD,Raw,
2,Olga Kuzmina,Open,2001,Russia,145.85,,,,235,,,,125,,,,205,565,84+,F,Ольга Кузьмина,SBD,Raw,
3,Maryana Bondar,Open,1987,Russia,117.75,,,,170,,,,107.5,,,,155,432.5,84+,F,Марьяна Бондарь,SBD,Raw,
DQ,Evgeniya Yudakova,Open,1983,Russia,87.75,,,,,,,,90,,,,180,,84+,F,Евгения Юдакова,SBD,Raw,
1,Sergey Fedosienko,Open,1982,Russia,58.6,,,,215,,,,150,,,,255,620,59,M,Сергей Федосиенко,SBD,Raw,
2,Evgeniy Mukhomedyanov,Open,1981,Russia,58.6,,,,215,,,,130,,,,220,565,59,M,Евгений Мухомедьянов,SBD,Raw,
3,Sergey Novikov #1,Open,1993,Russia,58.15,,,,175,,,,117.5,,,,205,497.5,59,M,Сергей Новиков,SBD,Raw,
4,Anton Tovstyga,Open,1995,Ukraine,58.55,,,,157.5,,,,102.5,,,,200,460,59,M,Антон Товстига,SBD,Raw,
5,Aleksey Petukhov #7,Open,1988,Russia,58.75,,,,160,,,,105,,,,195,460,59,M,Алексей Петухов,SBD,Raw,
6,Rustam Sadretdinov,Open,1981,Russia,58.4,,,,140,,,,105,,,,200,445,59,M,Рустам Садретдинов,SBD,Raw,
7,Dmitriy Gonchar,Open,1994,Russia,57.95,,,,140,,,,122.5,,,,170,432.5,59,M,Дмитрий Гончар,SBD,Raw,
8,Anton Petukhov #1,Open,1988,Russia,58.45,,,,155,,,,105,,,,155,415,59,M,Антон Петухов,SBD,Raw,
9,Aldar Dambiev,Open,1994,Russia,58,,,,140,,,,105,,,,165,410,59,M,Алдар Дамбиев,SBD,Raw,
1,Sergey Gladkikh,Open,1989,Russia,65.6,,,,250,,,,160,,,,277.5,687.5,66,M,Сергей Гладких,SBD,Raw,
2,Ilya Marichev,Open,2001,Russia,65.75,,,,235,,,,147.5,,,282.5,282.5,665,66,M,Илья Маричев,SBD,Raw,
3,Sergey Skochek,Open,1983,Russia,65.6,,,,197.5,,,,167.5,,,,235,600,66,M,Сергей Скочек,SBD,Raw,
4,Sergey Bachylo,Open,1997,Russia,65.65,,,,215,,,,120,,,,245,580,66,M,Сергей Бачыло,SBD,Raw,
5,Semen Bogdan,Open,1995,Russia,65.2,,,,190,,,,140,,,,245,575,66,M,Семен Богдан,SBD,Raw,
6,Andrey Shvankov,Open,1986,Russia,65.7,,,,200,,,,145,,,,222.5,567.5,66,M,Андрей Шваньков,SBD,Raw,
7,Vladimir Talankin,Open,1985,Russia,65.9,,,,180,,,,135,,,,247.5,562.5,66,M,Владимир Таланкин,SBD,Raw,
8,Leonid Kuznetsov,Open,1993,Russia,65.55,,,,200,,,,130,,,,230,560,66,M,Леонид Кузнецов,SBD,Raw,
9,Artem Nekrasov,Open,1993,Russia,65.5,,,,185,,,,125,,,,235,545,66,M,Артем Некрасов,SBD,Raw,
10,Nikolay Yakimov,Open,1985,Russia,65.65,,,,175,,,,110,,,,225,510,66,M,Николай Якимов,SBD,Raw,
11,Denis Gromov,Open,1984,Russia,65.65,,,,175,,,,115,,,,205,495,66,M,Денис Громов,SBD,Raw,
12,Rasul Agamagomedov,Open,1990,Russia,65.75,,,,165,,,,117.5,,,,200,482.5,66,M,Расул Агамагомедов,SBD,Raw,
13,Yuriy Igushev,Open,1987,Russia,64.8,,,,165,,,,122.5,,,,180,467.5,66,M,Юрий Игушев,SBD,Raw,
DQ,Alexander Kolbin,Open,1987,Russia,65.6,,,,215,,,,150,,,,,,66,M,Александр Колбин,SBD,Raw,
1,Sergey Negara,Open,1978,Russia,73.75,,,,230,,,,157.5,,,,272.5,660,74,M,Сергей Негара,SBD,Raw,
2,Vyacheslav Sirotin,Open,1987,Russia,73,,,,220,,,,147.5,,,,265,632.5,74,M,Вячеслав Сиротин,SBD,Raw,
3,Aleksey Egorov,Open,1992,Russia,72.85,,,,232.5,,,,155,,,,242.5,630,74,M,Алексей Егоров,SBD,Raw,
4,Sergey Tarasov #1,Open,1994,Russia,70.2,,,,220,,,,137.5,,,,250,607.5,74,M,Сергей Тарасов,SBD,Raw,
5,Maksim Svinarev,Open,1994,Russia,73.9,,,,215,,,,165,,,,227.5,607.5,74,M,Максим Свинарев,SBD,Raw,
6,Nikolay Godopeter,Open,1989,Russia,73.9,,,,195,,,,130,,,,250,575,74,M,Николай Годопетер,SBD,Raw,
7,Aleksandr Fadeev,Open,1990,Russia,71.95,,,,200,,,,140,,,,230,570,74,M,Александр Фадеев,SBD,Raw,
8,Konstantin Vorobyev,Open,1988,Russia,72.85,,,,192.5,,,,127.5,,,,240,560,74,M,Константин Воробьев,SBD,Raw,
9,Andrey Kotylev,Open,2000,Russia,73.25,,,,207.5,,,,125,,,,227.5,560,74,M,Андрей Котылев,SBD,Raw,
10,Andrey Martynyuk,Open,1995,Russia,72.35,,,,177.5,,,,125,,,,245,547.5,74,M,Андрей Мартынюк,SBD,Raw,
11,Sergey Bultukov,Open,1991,Russia,72.85,,,,200,,,,125,,,,220,545,74,M,Сергей Бултуков,SBD,Raw,
12,Sergey Korchin,Open,2002,Russia,72.9,,,,205,,,,120,,,,220,545,74,M,Сергей Корчин,SBD,Raw,
13,Aleksey Churakov,Open,1991,Russia,73.6,,,,192.5,,,,137.5,,,,215,545,74,M,Алексей Чураков,SBD,Raw,
14,Alexander Grigoryev,Open,1997,Russia,72.6,,,,192.5,,,,112.5,,,,225,530,74,M,Александр Григорьев,SBD,Raw,
15,Vyacheslav Solomon,Open,1991,Russia,70.4,,,,177.5,,,,135,,,,200,512.5,74,M,Вячеслав Соломон,SBD,Raw,
16,Yakov Prokopyev,Open,1996,Russia,73.15,,,,170,,,,130,,,,210,510,74,M,Яков Прокопьев,SBD,Raw,
17,Nikita Maksimov,Open,1990,Russia,70.15,,,,175,,,,125,,,,205,505,74,M,Никита Максимов,SBD,Raw,
18,Daniil Logvinov,Open,1994,Russia,73.2,,,,175,,,,142.5,,,,180,497.5,74,M,Даниил Логвинов,SBD,Raw,
DQ,Ruben Davidyan,Open,1992,Russia,72,,,,215,,,,,,,,230,,74,M,Рубен Давидян,SBD,Raw,
DQ,Dmitriy Zalevskiy,Open,1997,Russia,72.35,,,,,,,,,,,,,,74,M,Дмитрий Залевский,SBD,Raw,
1,Konstantin Dunin,Open,1996,Russia,80.95,,,,260,,,,182.5,,,,310,752.5,83,M,Константин Дунин,SBD,Raw,
2,Alexey Kuzmin,Open,1982,Russia,81.7,,,,265,,,,185,,,,290,740,83,M,Алексей Кузьмин,SBD,Raw,
3,Semen Golovachuk,Open,1991,Russia,82.55,,,,250,,,,201.5,,,,285,736.5,83,M,Семен Головачук,SBD,Raw,
4,Robert Barsegyan,Open,1998,Russia,82.15,,,,260,,,,185,,,,290,735,83,M,Роберт Барсегян,SBD,Raw,
5,Andrey Kostenko,Open,1988,Russia,81,,,,270,,,,165,,,,287.5,722.5,83,M,Андрей Костенко,SBD,Raw,
6,Ivan Davydov,Open,1989,Russia,82.75,,,,260,,,,167.5,,,,295,722.5,83,M,Иван Давыдов,SBD,Raw,
7,Valeriy Tuktarov,Open,1992,Russia,82.55,,,,245,,,,175,,,,282.5,702.5,83,M,Валерий Туктаров,SBD,Raw,
8,Aleksandr Erivanov,Open,1989,Russia,82.55,,,,245,,,,160,,,,290,695,83,M,Александр Эриванов,SBD,Raw,
9,Mikhail Kiselev,Open,1992,Russia,81.9,,,,225,,,,155,,,,300,680,83,M,Михаил Киселев,SBD,Raw,
10,Pavel Kashin,Open,1990,Russia,82.25,,,,240,,,,185,,,,255,680,83,M,Павел Кашин,SBD,Raw,
11,Vyacheslav Nartaylakov,Open,1992,Russia,82.1,,,,252.5,,,,175,,,,250,677.5,83,M,Вячеслав Нартайлаков,SBD,Raw,
12,Denis Cheburashkin,Open,1994,Russia,82.45,,,,232.5,,,,175,,,,260,667.5,83,M,Денис Чебурашкин,SBD,Raw,
13,Evgeniy Kanyukov,Open,1987,Russia,82.75,,,,230,,,,155,,,,260,645,83,M,Евгений Канюков,SBD,Raw,
14,Dmitriy Trifanov,Open,1996,Russia,81.5,,,,215,,,,175,,,,240,630,83,M,Дмитрий Трифанов,SBD,Raw,
15,Denis Larionov,Open,1982,Russia,82.35,,,,225,,,,160,,,,245,630,83,M,Денис Ларионов,SBD,Raw,
16,Evgeniy Korotchenkov,Open,1988,Russia,82.7,,,,225,,,,172.5,,,,230,627.5,83,M,Евгений Коротченков,SBD,Raw,
17,Evgeniy Panteleev,Open,1987,Russia,82.1,,,,220,,,,145,,,,255,620,83,M,Евгений Пантелеев,SBD,Raw,
18,Artem Ryabov,Open,1985,Russia,82.95,,,,232.5,,,,152.5,,,,235,620,83,M,Артем Рябов,SBD,Raw,
19,Rinat Nikolaev,Open,1986,Russia,82.45,,,,230,,,,145,,,,240,615,83,M,Ринат Николаев,SBD,Raw,
20,Andrey Matveev,Open,1992,Russia,82.5,,,,225,,,,147.5,,,,240,612.5,83,M,Андрей Матвеев,SBD,Raw,
21,Aleksandr Barinov,Open,1993,Russia,81.5,,,,215,,,,175,,,,220,610,83,M,Александр Баринов,SBD,Raw,
22,Vladislav Lisin,Open,1994,Russia,81.5,,,,217.5,,,,152.5,,,,240,610,83,M,Владислав Лисин,SBD,Raw,
23,Andrey Lebedev,Open,1992,Russia,81.55,,,,225,,,,140,,,,245,610,83,M,Андрей Лебедев,SBD,Raw,
24,Aleksey Pribylnov,Open,1989,Russia,82.25,,,,210,,,,155,,,,245,610,83,M,Алексей Прибыльнов,SBD,Raw,
25,Artem Belyakov,Open,1998,Russia,82.6,,,,210,,,,145,,,,255,610,83,M,Артем Беляков,SBD,Raw,
26,Sergey Zaytsev,Open,1986,Russia,82.7,,,,215,,,,145,,,,250,610,83,M,Сергей Зайцев,SBD,Raw,
27,Dmitriy Kushnir,Open,1989,Russia,80.35,,,,220,,,,160,,,,227.5,607.5,83,M,Дмитрий Кушнир,SBD,Raw,
28,Konstantin Ivanov,Open,1989,Russia,83,,,,197.5,,,,132.5,,,,250,580,83,M,Константин Иванов,SBD,Raw,
29,Svyatoslav Churey,Open,1991,Russia,82.2,,,,210,,,,152.5,,,,215,577.5,83,M,Святослав Чурей,SBD,Raw,
30,Mikhail Ivanov,Open,1989,Russia,82.35,,,,190,,,,142.5,,,,230,562.5,83,M,Михаил Иванов,SBD,Raw,
31,Nikolay Pynzar,Open,1991,Russia,82.65,,,,192.5,,,,142.5,,,,225,560,83,M,Николай Пынзарь,SBD,Raw,
32,Maksim Mergasov,Open,1992,Ukraine,81.55,,,,185,,,,147.5,,,,220,552.5,83,M,Максим Мергасов,SBD,Raw,
33,Kirill Denisov,Open,1992,Russia,81.9,,,,177.5,,,,140,,,,222.5,540,83,M,Кирилл Денисов,SBD,Raw,
34,Ilya Usachev,Open,1985,Russia,81.55,,,,185,,,,132.5,,,,217.5,535,83,M,Илья Усачев,SBD,Raw,
1,Aleksey Zinurov,Open,1988,Russia,91.35,,,,290,,,,202.5,,,,300,792.5,93,M,Алексей Зинуров,SBD,Raw,
2,Umar Atabiev,Open,1975,Russia,91,,,,295,,,,187.5,,,,290,772.5,93,M,Умар Атабиев,SBD,Raw,
3,Aleksey Korchagin,Open,1978,Russia,87.65,,,,265,,,,190,,,,310,765,93,M,Алексей Корчагин,SBD,Raw,
4,Vladimir Karaman,Open,1981,Russia,91.8,,,,270,,,,185,,,,310,765,93,M,Владимир Караман,SBD,Raw,
5,Aleksandr Rodionov,Open,1988,Russia,92.4,,,,260,,,,197.5,,,,300,757.5,93,M,Александр Родионов,SBD,Raw,
6,Ivan Redkin,Open,1989,Russia,89.15,,,,277.5,,,,190,,,,260,727.5,93,M,Иван Редькин,SBD,Raw,
7,Aleksandr Usynin,Open,1994,Russia,91.45,,,,265,,,,182.5,,,,260,707.5,93,M,Александр Усынин,SBD,Raw,
8,Dmitriy Kashin,Open,1988,Russia,92.55,,,,262.5,,,,175,,,,265,702.5,93,M,Дмитрий Кашин,SBD,Raw,
9,Aleksandr Zatula,Open,1985,Russia,91.9,,,,250,,,,170,,,,270,690,93,M,Александр Затула,SBD,Raw,
10,Andrey Laykhinen,Open,1983,Russia,89.1,,,,230,,,,192.5,,,,260,682.5,93,M,Андрей Лайхинен,SBD,Raw,
11,Aleksandr Savchenko,Open,1985,Russia,91.1,,,,245,,,,175,,,,260,680,93,M,Александр Савченко,SBD,Raw,
12,Roman Bychkov,Open,1985,Russia,92.5,,,,250,,,,155,,,,272.5,677.5,93,M,Роман Бычков,SBD,Raw,
13,Igor Voronov,Open,1993,Russia,90.35,,,,235,,,,175,,,,260,670,93,M,Игорь Воронов,SBD,Raw,
14,Yuriy Gubanov,Open,1987,Russia,91.8,,,,245,,,,167.5,,,,255,667.5,93,M,Юрий Губанов,SBD,Raw,
15,Andrey Filippov,Open,1995,Russia,92.55,,,,227.5,,,,182.5,,,,257.5,667.5,93,M,Андрей Филиппов,SBD,Raw,
16,Dmitriy Kadyntsev,Open,1991,Russia,92.8,,,,240,,,,152.5,,,,275,667.5,93,M,Дмитрий Кадынцев,SBD,Raw,
17,Ilya Kuzminov,Open,1988,Russia,91.3,,,,240,,,,160,,,,260,660,93,M,Илья Кузьминов,SBD,Raw,
18,Aleksandr Vasilevskiy,Open,1994,Russia,92.3,,,,235,,,,172.5,,,,252.5,660,93,M,Александр Василевский,SBD,Raw,
19,Egor Danko,Open,1985,Russia,92.7,,,,252.5,,,,147.5,,,,252.5,652.5,93,M,Егор Данько,SBD,Raw,
20,Evgeniy Lukin,Open,1987,Russia,92.35,,,,235,,,,180,,,,235,650,93,M,Евгений Лукин,SBD,Raw,
21,Dmitriy Dolmatov,Open,1988,Russia,91.75,,,,230,,,,160,,,,255,645,93,M,Дмитрий Долматов,SBD,Raw,
22,Sergey Raznitsyn,Open,1988,Russia,92.25,,,,230,,,,152.5,,,,250,632.5,93,M,Сергей Разницын,SBD,Raw,
23,Sergey Suchkov,Open,1993,Russia,92.65,,,,210,,,,150,,,,270,630,93,M,Сергей Сучков,SBD,Raw,
24,Igor Antipin,Open,1991,Russia,88.75,,,,225,,,,152.5,,,,250,627.5,93,M,Игорь Антипин,SBD,Raw,
25,Aleksandr Polozov,Open,1987,Russia,92.45,,,,220,,,,170,,,,227.5,617.5,93,M,Александр Полозов,SBD,Raw,
26,Aleksandr Levin,Open,1989,Russia,89.45,,,,215,,,,137.5,,,,245,597.5,93,M,Александр Левин,SBD,Raw,
27,Ivan Moskalionov,Open,1997,Russia,92.45,,,,220,,,,145,,,,230,595,93,M,Иван Москалионов,SBD,Raw,
28,Ivan Zhiltsov,Open,1985,Russia,87.3,,,,210,,,,142.5,,,,210,562.5,93,M,Иван Жильцов,SBD,Raw,
DQ,Dmitriy Yagonson,Open,1984,Russia,92.85,,,,,,,,,,,,,,93,M,Дмитрий Ягонсон,SBD,Raw,
1,Levon Tavakalov,Open,1988,Russia,104.5,,,,310,,,,227.5,,354,362.5,362.5,900,105,M,Левон Тавакалов,SBD,Raw,
2,Timur Fedotov,Open,1990,Russia,104.4,,,,295,,,,205,,,,335,835,105,M,Тимур Федотов,SBD,Raw,
3,Konstantin Chekasin,Open,1992,Russia,104.05,,,,300,,,,215,,,,310,825,105,M,Константин Чекасин,SBD,Raw,
4,Yaroslav Trubichkin,Open,1987,Ukraine,103.3,,,,310,,,,190,,,,310,810,105,M,Ярослав Трубічкін,SBD,Raw,
5,Ernst Gross,Open,1987,Russia,105,,,,317.5,,,,192.5,,,,290,800,105,M,Эрнст Гросс,SBD,Raw,
6,Denis Grebnev,Open,1986,Russia,104.35,,,,260,,,,235.5,,,,295,790.5,105,M,Денис Гребнев,SBD,Raw,
7,Maksim Markov,Open,1985,Russia,103.75,,,,260,,,,192.5,,,,335,787.5,105,M,Максим Марков,SBD,Raw,
8,Aleksandr Kadzaev,Open,1990,Russia,104.6,,,,280,,,,167.5,,,,315,762.5,105,M,Александр Кадзаев,SBD,Raw,
9,Leonid Korovin,Open,1977,Russia,101.45,,,,262.5,,,,192.5,,,,280,735,105,M,Леонид Коровин,SBD,Raw,
10,Kirill Kuzin,Open,1996,Russia,99.6,,,,265,,,,182.5,,,,270,717.5,105,M,Кирилл Кузин,SBD,Raw,
11,Evgeniy Monakhov,Open,1972,Russia,102.8,,,,255,,,,162.5,,,,292.5,710,105,M,Евгений Монахов,SBD,Raw,
12,Sergey Gornushkin,Open,1993,Russia,104.7,,,,265,,,,175,,,,270,710,105,M,Сергей Горнушкин,SBD,Raw,
13,Aleksey Apostolov,Open,1986,Russia,103.2,,,,247.5,,,,172.5,,,,275,695,105,M,Алексей Апостолов,SBD,Raw,
14,Oleg Titov,Open,1992,Russia,104.75,,,,250,,,,175,,,,265,690,105,M,Олег Титов,SBD,Raw,
15,Konstantin Lartsev,Open,1985,Russia,99.95,,,,250,,,,160,,,,265,675,105,M,Константин Ларцев,SBD,Raw,
16,Maksim Kostenko,Open,1990,Russia,95.25,,,,257.5,,,,140,,,,270,667.5,105,M,Максим Костенко,SBD,Raw,
17,Roman Ladochkin,Open,1986,Russia,103.3,,,,242.5,,,,180,,,,245,667.5,105,M,Роман Ладочкин,SBD,Raw,
18,Evgeniy Vintsevich,Open,1980,Ukraine,103.75,,,,242.5,,,,165,,,,257.5,665,105,M,Евгений Винцевич,SBD,Raw,
19,Konstantin Tishkin,Open,1987,Russia,104.75,,,,240,,,,160,,,,250,650,105,M,Константин Тишкин,SBD,Raw,
20,Igor Remishevskiy,Open,1979,Russia,104.25,,,,205,,,,150,,,,250,605,105,M,Игорь Ремишевский,SBD,Raw,
21,Arutyun Karapetyan,Open,1988,Russia,97.2,,,,217.5,,,,160,,,,222.5,600,105,M,Арутюн Карапетян,SBD,Raw,
DQ,Pavel Ryzhov,Open,1995,Russia,104.25,,,,,,,,230,,,,,,105,M,Павел Рыжов,SBD,Raw,
DQ,Evgeniy Zuev,Open,1985,Russia,95.85,,,,,,,,,,,,,,105,M,Евгений Зуев,SBD,Raw,
1,Konstantin Musaev,Open,1997,Russia,119.5,,,,315,,,,220,,,,365,900,120,M,Константин Мусаев,SBD,Raw,
2,Maksim Beznosov,Open,1991,Russia,118.7,,,,330,,,,200,,,,337.5,867.5,120,M,Максим Безносов,SBD,Raw,
3,Daniil Ermolaev,Open,1997,Russia,115.9,,,,342.5,,,,202.5,,,,320,865,120,M,Даниил Ермолаев,SBD,Raw,
4,Sergey Shishkanov,Open,1985,Russia,119.55,,,,270,,,,210,,,,310,790,120,M,Сергей Шишканов,SBD,Raw,
5,Maksim Matros,Open,1992,Russia,111.65,,,,265,,,,180,,,,315,760,120,M,Максим Матрос,SBD,Raw,
6,Sergey Tarakanov,Open,1993,Russia,119.45,,,,265,,,,177.5,,,,317.5,760,120,M,Сергей Тараканов,SBD,Raw,
7,Viktor Popov #4,Open,1987,Russia,114.1,,,,275,,,,162.5,,,,312.5,750,120,M,Виктор Попов,SBD,Raw,
8,Mikhail Frolov,Open,1979,Russia,119.95,,,,280,,,,190,,,,280,750,120,M,Михаил Фролов,SBD,Raw,
9,Viktor Zhurin,Open,1994,Russia,117.8,,,,280,,,,182.5,,,,275,737.5,120,M,Виктор Журин,SBD,Raw,
10,Grigoriy Chuprov,Open,1985,Russia,116.2,,,,265,,,,195,,,,270,730,120,M,Григорий Чупров,SBD,Raw,
11,Daniil Zagaynov,Open,1992,Russia,117.4,,,,250,,,,177.5,,,,262.5,690,120,M,Даниил Загайнов,SBD,Raw,
12,Mikhail Kuvshinov,Open,1989,Russia,119.35,,,,252.5,,,,167.5,,,,267.5,687.5,120,M,Михаил Кувшинов,SBD,Raw,
13,Vladislav Akimov,Open,1996,Russia,118.55,,,,230,,,,172.5,,,,250,652.5,120,M,Владислав Акимов,SBD,Raw,
DQ,Aleksey Gorelov,Open,1981,Russia,117.95,,,,260,,,,,,,,,,120,M,Алексей Горелов,SBD,Raw,
1,Andrey Konovalov #1,Open,1986,Russia,159.4,,,,360,,,,245,,,,337.5,942.5,120+,M,Андрей Коновалов,SBD,Raw,
2,Egor Rezepov,Open,1995,Russia,158.65,,,,312.5,,,,180,,,,337.5,830,120+,M,Егор Резепов,SBD,Raw,
3,Vladimir Astratov,Open,1986,Russia,159.65,,,,290,,,,170,,,,325,785,120+,M,Владимир Астратов,SBD,Raw,
4,Maksim Chechuev,Open,1997,Russia,128.8,,,,282.5,,,,152.5,,,,255,690,120+,M,Максим Чечуев,SBD,Raw,
1,Roza Kozlovskaya,Sub-Juniors,2005,Russia,42.7,,,,75,,,,50,,,,110,235,43,F,Роза Козловская,SBD,Raw,
2,Ralina Galiullina,Sub-Juniors,2003,Russia,42.35,,,,67.5,,,,47.5,,,,100,215,43,F,Ралина Галиуллина,SBD,Raw,
3,Diana Anerkhanova,Sub-Juniors,2003,Russia,42.2,,,,72.5,,,,42.5,,,,95,210,43,F,Диана Анерханова,SBD,Raw,
4,Diana Petrova,Sub-Juniors,2004,Russia,41.85,,,,72.5,,,,37.5,,,,92.5,202.5,43,F,Диана Петрова,SBD,Raw,
5,Ekaterina Shamakhanova,Sub-Juniors,2005,Russia,42.85,,,,72.5,,,,40,,,,85,197.5,43,F,Екатерина Шамаханова,SBD,Raw,
6,Anastasiya Bykova,Sub-Juniors,2004,Russia,42.55,,,,72.5,,,,45,,,,77.5,195,43,F,Анастасия Быкова,SBD,Raw,
7,Yana Korenchenko,Sub-Juniors,2004,Russia,42.75,,,,65,,,,35,,,,72.5,172.5,43,F,Яна Коренченко,SBD,Raw,
8,Alina Gaskarova,Sub-Juniors,2005,Russia,42.1,,,,62.5,,,,35,,,,72.5,170,43,F,Алина Гаскарова,SBD,Raw,
9,Alina Belova,Sub-Juniors,2006,Russia,43,,,,55,,,,35,,,,80,170,43,F,Алина Белова,SBD,Raw,
10,Anastasiya Lazareva,Sub-Juniors,2007,Russia,42.4,,,,55,,,,30,,,,70,155,43,F,Анастасия Лазарева,SBD,Raw,
1,Alina Udaltsova,Sub-Juniors,2003,Russia,46.7,,,,105,,72.5,75,75,,,,135,315,47,F,Алина Удальцова,SBD,Raw,
2,Sofya Akopyan,Sub-Juniors,2003,Russia,47,,,,82.5,,,,55,,,,127.5,265,47,F,Софья Акопян,SBD,Raw,
3,Alina Lebedeva,Sub-Juniors,2004,Russia,46.4,,,,95,,,,57.5,,,,110,262.5,47,F,Алина Лебедева,SBD,Raw,
4,Kseniya Uryutina,Sub-Juniors,2005,Russia,45.55,,,,70,,,,60,,,,110,240,47,F,Ксения Урютина,SBD,Raw,
5,Yana Menshikova,Sub-Juniors,2004,Russia,47,,,,92.5,,,,45,,,,100,237.5,47,F,Яна Меньшикова,SBD,Raw,
6,Alina Egorova,Sub-Juniors,2005,Russia,45.5,,,,75,,,,50,,,,95,220,47,F,Алина Егорова,SBD,Raw,
DQ,Anastasiya Nikitina,Sub-Juniors,2007,Russia,46.95,,,,105,,,,,,,,,,47,F,Анастасия Никитина,SBD,Raw,
1,Mariya Kurkova,Sub-Juniors,2004,Russia,50.7,,,,115,,,,65,,,,127.5,307.5,52,F,Мария Куркова,SBD,Raw,
2,Polina Bagautdinova,Sub-Juniors,2003,Russia,50.9,,,,100,,,,62.5,,,,125,287.5,52,F,Полина Багаутдинова,SBD,Raw,
3,Anastasiya Belonogova,Sub-Juniors,2003,Russia,51.9,,,,107.5,,,,55,,,,120,282.5,52,F,Анастасия Белоногова,SBD,Raw,
4,Viktoriya Shkarina,Sub-Juniors,2005,Russia,50.9,,,,107.5,,,,52.5,,,,120,280,52,F,Виктория Шкарина,SBD,Raw,
5,Anastasiya Isaeva,Sub-Juniors,2006,Russia,50.95,,,,90,,,,62.5,,,,115,267.5,52,F,Анастасия Исаева,SBD,Raw,
6,Alina Sevostyanova,Sub-Juniors,2004,Russia,51.6,,,,102.5,,,,50,,,,115,267.5,52,F,Алина Севостьянова,SBD,Raw,
7,Gulnaz Gabzalilova,Sub-Juniors,2006,Russia,52,,,,95,,,,47.5,,,,117.5,260,52,F,Гульназ Габзалилова,SBD,Raw,
8,Natalya Turyeva,Sub-Juniors,2003,Russia,50,,,,92.5,,,,45,,,,117.5,255,52,F,Наталья Турьева,SBD,Raw,
9,Viktoriya Nesterova,Sub-Juniors,2006,Russia,51.3,,,,90,,,,42.5,,,,107.5,240,52,F,Виктория Нестерова,SBD,Raw,
10,Kseniya Shumova,Sub-Juniors,2004,Russia,51,,,,85,,,,60,,,,90,235,52,F,Ксения Шумова,SBD,Raw,
11,Valeriya Spichak,Sub-Juniors,2004,Russia,49.55,,,,87.5,,,,47.5,,,,92.5,227.5,52,F,Валерия Спичак,SBD,Raw,
12,Darya Gvozdeva,Sub-Juniors,2003,Russia,49.05,,,,87.5,,,,42.5,,,,90,220,52,F,Дарья Гвоздева,SBD,Raw,
13,Alyona Bieva,Sub-Juniors,2003,Russia,50.9,,,,80,,,,42.5,,,,90,212.5,52,F,Алёна Биева,SBD,Raw,
14,Zlata Danilova,Sub-Juniors,2005,Russia,51.65,,,,65,,,,42.5,,,,90,197.5,52,F,Злата Данилова,SBD,Raw,
DQ,Darya Shargorodskaya,Sub-Juniors,2005,Russia,51.15,,,,,,,,60,,,,105,,52,F,Дарья Шаргородская,SBD,Raw,
1,Polina Pavlova,Sub-Juniors,2005,Russia,56.65,,,,122.5,,,,75,,155.5,160,160,357.5,57,F,Полина Павлова,SBD,Raw,
2,Veronika Pavlenko,Sub-Juniors,2003,Russia,56.55,,,140.5,140.5,,,,72.5,,,,135,348,57,F,Вероника Павленко,SBD,Raw,
3,Arina Demidova,Sub-Juniors,2003,Russia,57,,,,115,,,,105,,,,120,340,57,F,Арина Демидова,SBD,Raw,
4,Polina Zhabina,Sub-Juniors,2003,Russia,56.25,,,,125,,,,87.5,,,,120,332.5,57,F,Полина Жабина,SBD,Raw,
5,Avgustina Pivneva,Sub-Juniors,2004,Russia,56.6,,,,112.5,,,,65,,,,132.5,310,57,F,,SBD,Raw,
6,Olga Toropitsina,Sub-Juniors,2003,Russia,55.95,,,,105,,,,75,,,,120,300,57,F,Ольга Торопицина,SBD,Raw,
7,Alina Afonina,Sub-Juniors,2006,Russia,56.45,,,,90,,,,60,,,,110,260,57,F,Алина Афонина,SBD,Raw,
8,Anastasiya Smirnova,Sub-Juniors,2004,Russia,54.15,,,,85,,,,60,,,,100,245,57,F,Анастасия Смирнова,SBD,Raw,
9,Elizaveta Schipanova,Sub-Juniors,2007,Russia,54.15,,,,85,,,,50,,,,110,245,57,F,Елизавета Щипанова,SBD,Raw,
10,Varvara Sklyanina,Sub-Juniors,2003,Russia,52.6,,,,75,,,,47.5,,,,85,207.5,57,F,Варвара Склянина,SBD,Raw,
DQ,Elena Baranova,Sub-Juniors,2005,Russia,55.9,,,,100,,,,57.5,,,,,,57,F,Елена Баранова,SBD,Raw,
1,Veronika Dyakova,Sub-Juniors,2004,Russia,62,,,,125,,,,90,,,155.5,155.5,370.5,63,F,Вероника Дьякова,SBD,Raw,
2,Marina Syuzeva,Sub-Juniors,2004,Russia,61.45,,,,150,,,,65,,,,140,355,63,F,Марина Сюзёва,SBD,Raw,
3,Mayya Filimonova,Sub-Juniors,2004,Russia,58.7,,,,140,,,,67.5,,,,135,342.5,63,F,Майя Филимонова,SBD,Raw,
4,Olesya Shimanchuk,Sub-Juniors,2005,Russia,61.7,,,,122.5,,,,72.5,,,,140,335,63,F,Олеся Шиманчук,SBD,Raw,
5,Ekaterina Chinaeva,Sub-Juniors,2003,Russia,62.45,,,,100,,,,75,,,,100,275,63,F,Екатерина Чинаева,SBD,Raw,
6,Diana Zelenova,Sub-Juniors,2004,Russia,61.85,,,,100,,,,52.5,,,,115,267.5,63,F,Диана Зеленова,SBD,Raw,
7,Kseniya Gancho,Sub-Juniors,2006,Russia,57.45,,,,95,,,,47.5,,,,112.5,255,63,F,Ксения Ганчо,SBD,Raw,
8,Yuliya Dulina,Sub-Juniors,2005,Russia,62.15,,,,87.5,,,,57.5,,,,107.5,252.5,63,F,Юлия Дулина,SBD,Raw,
9,Kseniya Tomilina,Sub-Juniors,2005,Russia,59.75,,,,90,,,,52.5,,,,102.5,245,63,F,Ксения Томилина,SBD,Raw,
10,Elena Mishurina,Sub-Juniors,2005,Russia,57.65,,,,90,,,,47.5,,,,105,242.5,63,F,Елена Мишурина,SBD,Raw,
1,Anna Bardova,Sub-Juniors,2004,Russia,65.45,,165,175,175,,,,85,,180,190,190,450,72,F,Анна Бардова,SBD,Raw,
2,Darya Tugasheva,Sub-Juniors,2003,Russia,71,,,,115,,,,65,,,,130,310,72,F,Дарья Тугашева,SBD,Raw,
3,Svetlana Chesnokova,Sub-Juniors,2003,Russia,65.6,,,,110,,,,67.5,,,,110,287.5,72,F,Светлана Чеснокова,SBD,Raw,
4,Anna Perminova,Sub-Juniors,2004,Ukraine,71,,,,105,,,,57.5,,,,112.5,275,72,F,Анна Перминова,SBD,Raw,
5,Angelina Shmonova,Sub-Juniors,2005,Russia,70.65,,,,110,,,,55,,,,100,265,72,F,Ангелина Шмонова,SBD,Raw,
6,Elizaveta Bikineeva,Sub-Juniors,2006,Russia,70.1,,,,80,,,,40,,,,110,230,72,F,Елизавета Бикинеева,SBD,Raw,
7,Sofya Berezova,Sub-Juniors,2004,Russia,64.65,,,,70,,,,42.5,,,,77.5,190,72,F,Софья Березова,SBD,Raw,
1,Viktoriya Volvenkina,Sub-Juniors,2003,Russia,72.4,,,,135,,,,77.5,,,,145,357.5,84,F,Виктория Волвенкина,SBD,Raw,
2,Yana Grigoryan,Sub-Juniors,2004,Russia,76.2,,,,127.5,,,,72.5,,,,135,335,84,F,Яна Григорян,SBD,Raw,
3,Tatyana Bykova,Sub-Juniors,2005,Russia,83.05,,,,130,,,,80,,,,125,335,84,F,Татьяна Быкова,SBD,Raw,
4,Anastasiya Tkachuk,Sub-Juniors,2003,Russia,76.35,,,,122.5,,,,52.5,,,,135,310,84,F,Анастасия Ткачук,SBD,Raw,
1,Diana Medvedkova,Sub-Juniors,2007,Russia,112.95,,,,110,,,,65,,,,120,295,84+,F,Диана Медведкова,SBD,Raw,
2,Darya Mikhaylova #2,Sub-Juniors,2007,Russia,84.95,,,,100,,,,52.5,,,,107.5,260,84+,F,Дарья Михайлова,SBD,Raw,
1,Dmitriy Lipatov,Sub-Juniors,2004,Russia,47.5,,90,105,105,47.5,55,,55,100,120,130,130,290,48,M,Дмитрий Липатов,SBD,Raw,
2,Vladimir Zhivodyorov,Sub-Juniors,2006,Russia,44.8,75,82.5,87.5,87.5,45,52.5,55,55,90,,105,105,247.5,48,M,Владимир Живодёров,SBD,Raw,
3,Aleksandr Gantsevskiy,Sub-Juniors,2005,Russia,46.65,70,77.5,,77.5,50,55,60,60,-50,50,,50,187.5,48,M,Александр Ганцевский,SBD,Raw,
1,Edmond Dumikyan,Sub-Juniors,2004,Russia,52.7,,,,150,,,110.5,110.5,,,,167.5,428,53,M,Эдмонд Думикян,SBD,Raw,
2,Vlas Filkov,Sub-Juniors,2004,Russia,52.55,,,,130,,,,80,,,,160,370,53,M,Влас Филков,SBD,Raw,
3,Daniil Postnikov,Sub-Juniors,2004,Russia,51.8,,,,142.5,,,,82.5,,,,127.5,352.5,53,M,Даниил Постников,SBD,Raw,
4,Dmitriy Korablev,Sub-Juniors,2005,Russia,51.8,,,,110,,,,85,,,,145,340,53,M,Дмитрий Кораблев,SBD,Raw,
5,Daniil Mitenkov,Sub-Juniors,2004,Russia,52.15,,,,127.5,,,,75,,,,137.5,340,53,M,Даниил Митенков,SBD,Raw,
6,Aleksandr Istratov,Sub-Juniors,2005,Russia,52.5,,,,120,,,,82.5,,,,137.5,340,53,M,Александр Истратов,SBD,Raw,
7,Daniil Bokov,Sub-Juniors,2005,Russia,51.55,,,,125,,,,70,,,,140,335,53,M,Даниил Боков,SBD,Raw,
8,Nikita Podolyako,Sub-Juniors,2007,Russia,52.55,,,,112.5,,,,72.5,,,,132.5,317.5,53,M,Никита Подоляко,SBD,Raw,
9,Oleg Rybka,Sub-Juniors,2006,Russia,51.4,,,,110,,,,67.5,,,,135,312.5,53,M,Олег Рыбка,SBD,Raw,
10,Semen Semenov,Sub-Juniors,2004,Russia,52.35,,,,105,,,,65,,,,120,290,53,M,Семен Семенов,SBD,Raw,
1,Ved Buryanovskiy,Sub-Juniors,2006,Russia,57.9,,,,180,,,,117.5,,,,210,507.5,59,M,Вэд Бурьяновский,SBD,Raw,
2,Vasiliy Bocharov,Sub-Juniors,2005,Russia,58.9,,,,177.5,,,,102.5,,,,170,450,59,M,Василий Бочаров,SBD,Raw,
3,Mark Mikityuk,Sub-Juniors,2004,Russia,58.5,,,,145,,,,82.5,,,,192.5,420,59,M,Марк Микитюк,SBD,Raw,
4,Nikolay Gotrash,Sub-Juniors,2003,Russia,58.2,,,,145,,,,92.5,,,,180,417.5,59,M,Николай Готраш,SBD,Raw,
5,Vladislav Garshin,Sub-Juniors,2005,Russia,56.9,,,,147.5,,,,80,,,,180,407.5,59,M,Владислав Гаршин,SBD,Raw,
1,Leonid Koval,Sub-Juniors,2003,Russia,65.75,,,,187.5,,,,105,,,,207.5,500,66,M,Леонид Коваль,SBD,Raw,
2,Sergey Boyko,Sub-Juniors,2003,Russia,65.95,,,,155,,,,115,,,,230,500,66,M,Сергей Бойко,SBD,Raw,
3,Ivan Grachev,Sub-Juniors,2003,Russia,64.7,,,,180,,,,105,,,,202.5,487.5,66,M,Иван Грачев,SBD,Raw,
4,Dmitriy Drobin,Sub-Juniors,2004,Russia,64.85,,,,200,,,,102.5,,,,185,487.5,66,M,Дмитрий Дробин,SBD,Raw,
5,Artem Bannikov,Sub-Juniors,2003,Russia,65.8,,,,165,,,,115,,,,190,470,66,M,Артем Банников,SBD,Raw,
6,Dmitriy Kolpakov,Sub-Juniors,2003,Russia,63.2,,,,172.5,,,,117.5,,,,177.5,467.5,66,M,Дмитрий Колпаков,SBD,Raw,
7,Aleksandr Utkin,Sub-Juniors,2006,Russia,65.1,,,,172.5,,,,115,,,,175,462.5,66,M,Александр Уткин,SBD,Raw,
8,Artem Dakhno,Sub-Juniors,2004,Russia,64.75,,,,170,,,,95,,,,192.5,457.5,66,M,Артем Дахно,SBD,Raw,
9,Maksim Vranitsyn,Sub-Juniors,2003,Russia,65,,,,157.5,,,,95,,,,205,457.5,66,M,Максим Враницын,SBD,Raw,
10,Kirill Kharlamkov,Sub-Juniors,2004,Russia,63.4,,,,170,,,,105,,,,160,435,66,M,Кирилл Харламков,SBD,Raw,
11,Oleg Urzhumtsev,Sub-Juniors,2004,Russia,64.2,,,,155,,,,115,,,,162.5,432.5,66,M,Олег Уржумцев,SBD,Raw,
12,Ramis Akhmatgaliev,Sub-Juniors,2003,Russia,65.05,,,,132.5,,,,100,,,,195,427.5,66,M,Рамис Ахматгалиев,SBD,Raw,
13,Vadim Zelepukin,Sub-Juniors,2005,Russia,64.3,,,,140,,,,112.5,,,,172.5,425,66,M,Вадим Зелепукин,SBD,Raw,
14,Danila Glebov,Sub-Juniors,2006,Russia,63.75,,,,150,,,,100,,,,165,415,66,M,Данила Глебов,SBD,Raw,
15,Aleksey Rybkin,Sub-Juniors,2003,Russia,63.8,,,,135,,,,102.5,,,,160,397.5,66,M,Алексей Рыбкин,SBD,Raw,
16,Dmitriy Kamushkin,Sub-Juniors,2005,Russia,63.65,,,,145,,,,100,,,,150,395,66,M,Дмитрий Камушкин,SBD,Raw,
17,Kirill Demin,Sub-Juniors,2006,Russia,64.9,,,,145,,,,85,,,,155,385,66,M,Кирилл Демин,SBD,Raw,
18,Aleksandr Morozov,Sub-Juniors,2006,Russia,65.25,,,,135,,,,82.5,,,,140,357.5,66,M,Александр Морозов,SBD,Raw,
DQ,Roman Khvalybov,Sub-Juniors,2003,Russia,65.35,,,,,,,,,,,,,,66,M,Роман Хвалыбов,SBD,Raw,
1,Anton Belkin,Sub-Juniors,2003,Russia,72.7,,,,205,,,,132.5,,,,200,537.5,74,M,Антон Белкин,SBD,Raw,
2,Artem Arzanyaev,Sub-Juniors,2004,Russia,73,,,,182.5,,,,122.5,,,,220,525,74,M,Артем Арзаняев,SBD,Raw,
3,Aleksey Vokhrintsov,Sub-Juniors,2005,Russia,72.9,,,,180,,,,112.5,,,,212.5,505,74,M,Алексей Вохринцов,SBD,Raw,
4,Aleksandr Pozhidaev,Sub-Juniors,2003,Russia,73.5,,,,170,,,,130,,,,200,500,74,M,Александр Пожидаев,SBD,Raw,
5,Nikita Tretyakov,Sub-Juniors,2003,Russia,72.8,,,,175,,,,107.5,,,,177.5,460,74,M,Никита Третьяков,SBD,Raw,
6,Aleksandr Ryazantsev,Sub-Juniors,2004,Russia,72.7,,,,167.5,,,,100,,,,180,447.5,74,M,Александр Рязанцев,SBD,Raw,
7,Maksim Dorofeev,Sub-Juniors,2003,Russia,73.2,,,,150,,,,107.5,,,,167.5,425,74,M,Максим Дорофеев,SBD,Raw,
8,Artem Ryzhov,Sub-Juniors,2004,Russia,72.8,,,,150,,,,107.5,,,,165,422.5,74,M,Артем Рыжов,SBD,Raw,
9,Nikita Novichenok,Sub-Juniors,2004,Russia,67,,,,135,,,,105,,,,155,395,74,M,,SBD,Raw,
10,Anatoliy Semibratov,Sub-Juniors,2006,Russia,67.65,,,,100,,,,77.5,,,,147.5,325,74,M,Анатолий Семибратов,SBD,Raw,
1,Aleksandr Ponamarev,Sub-Juniors,2003,Russia,81.8,,,,232.5,,,,147.5,,270,285,285,665,83,M,Александр Понамарев,SBD,Raw,
2,Aleksey Sevryukov,Sub-Juniors,2004,Russia,80.15,,,,235,,,160,160,,,,220,615,83,M,Алексей Севрюков,SBD,Raw,
3,Konstantin Syrovoy,Sub-Juniors,2003,Russia,79.65,,,,200,,,,135,,,,240,575,83,M,Константин Сыровой,SBD,Raw,
4,Andrey Tikhomirov,Sub-Juniors,2004,Russia,82,,,,210,,,,125,,,,240,575,83,M,Андрей Тихомиров,SBD,Raw,
5,Egor Petrov,Sub-Juniors,2003,Russia,82.7,,,,190,,,,125,,,,245,560,83,M,Егор Петров,SBD,Raw,
6,Stanislav Rakovich,Sub-Juniors,2004,Russia,80.3,,,,202.5,,,,135,,,,220,557.5,83,M,Станислав Ракович,SBD,Raw,
7,Artem Serikov,Sub-Juniors,2004,Russia,82.2,,,,205,,,,130,,,,217.5,552.5,83,M,Артем Сериков,SBD,Raw,
8,Ilya Sergeev,Sub-Juniors,2004,Russia,82.9,,,,197.5,,,,135,,,,210,542.5,83,M,Илья Сергеев,SBD,Raw,
9,Timofey Vlasov,Sub-Juniors,2004,Russia,79.3,,,,185,,,,112.5,,,,230,527.5,83,M,Тимофей Власов,SBD,Raw,
10,Maksim Avdonin,Sub-Juniors,2005,Russia,81.7,,,,185,,,,105,,,,210,500,83,M,Максим Авдонин,SBD,Raw,
11,Andrey Balov,Sub-Juniors,2003,Russia,82.7,,,,177.5,,,,100,,,,195,472.5,83,M,Андрей Балов,SBD,Raw,
12,Danil Yurkov,Sub-Juniors,2005,Russia,78.45,,,,162.5,,,,105,,,,167.5,435,83,M,Данил Юрков,SBD,Raw,
13,Dmitriy Kartsev,Sub-Juniors,2005,Russia,81.3,,,,160,,,,92.5,,,,165,417.5,83,M,Дмитрий Карцев,SBD,Raw,
1,Arslan Bochkarev,Sub-Juniors,2005,Russia,90.2,,,,240,,,,150,,,,270,660,93,M,Арслан Бочкарев,SBD,Raw,
2,Nikita Petrov,Sub-Juniors,2003,Russia,91.2,,,,230,,,170.5,170.5,,,,240,640.5,93,M,Никита Петров,SBD,Raw,
3,Matvey Kudashov,Sub-Juniors,2003,Russia,91.8,,,,232.5,,,,137.5,,,,240,610,93,M,Матвей Кудашов,SBD,Raw,
4,Leonid Zverevich,Sub-Juniors,2003,Russia,91.15,,,,225,,,,125,,,,230,580,93,M,Леонид Зверевич,SBD,Raw,
5,Kirill Sukhov,Sub-Juniors,2005,Russia,83.35,,,,190,,,,135,,,,200,525,93,M,Кирилл Сухов,SBD,Raw,
6,Sergey Kulikov,Sub-Juniors,2003,Russia,88.8,,,,172.5,,,,112.5,,,,215,500,93,M,Сергей Куликов,SBD,Raw,
7,Matvey Makareykin,Sub-Juniors,2004,Russia,90.95,,,,180,,,,120,,,,200,500,93,M,Матвей Макарейкин,SBD,Raw,
8,Filipp Aksenov,Sub-Juniors,2003,Russia,90.4,,,,165,,,,142.5,,,,185,492.5,93,M,Филипп Аксенов,SBD,Raw,
1,Ivan Panfilov,Sub-Juniors,2003,Russia,103.95,,,,260,,,,170,,,,280,710,105,M,Иван Панфилов,SBD,Raw,
2,Ivan Parshin,Sub-Juniors,2003,Russia,104.6,,,263.5,263.5,,,,127.5,,,,278,669,105,M,Иван Паршин,SBD,Raw,
3,Ivan Eskov,Sub-Juniors,2003,Russia,103.35,,,,230,,,,147.5,,,,230,607.5,105,M,Иван Еськов,SBD,Raw,
4,Vitaliy Butakov,Sub-Juniors,2003,Russia,101.05,,,,195,,,,120,,,,200,515,105,M,Виталий Бутаков,SBD,Raw,
1,Semen Sopin,Sub-Juniors,2004,Russia,117.6,,,,260,,,,140,,,,260,660,120,M,Семен Сопин,SBD,Raw,
2,Aleksey Bakhtin,Sub-Juniors,2003,Russia,110.2,,,,240,,,,140,,,,255,635,120,M,Алексей Бахтин,SBD,Raw,
3,Kirill Gaponov,Sub-Juniors,2004,Russia,119.3,,,,217.5,,,,132.5,,,,220,570,120,M,Кирилл Гапонов,SBD,Raw,
4,Kirill Grischenko,Sub-Juniors,2005,Russia,111.25,,,,215,,,,100,,,,230,545,120,M,Кирилл Грищенко,SBD,Raw,
5,Aleksey Akinin,Sub-Juniors,2003,Russia,107.2,,,,185,,,,130,,,,200,515,120,M,Алексей Акинин,SBD,Raw,
6,Dmitriy Karpekin,Sub-Juniors,2004,Russia,113.2,,,,210,,,,100,,,,200,510,120,M,Дмитрий Карпекин,SBD,Raw,
7,Artem Sugak,Sub-Juniors,2005,Russia,117.75,,,,170,,,,140,,,,200,510,120,M,Артем Сугак,SBD,Raw,
8,Semen Manin,Sub-Juniors,2005,Russia,111.15,,,,170,,,,105,,,,190,465,120,M,Семен Манин,SBD,Raw,
1,Artem Chekalov,Sub-Juniors,2005,Russia,149.8,,280,290,290,,,,170,,,,247.5,707.5,120+,M,Артем Чекалов,SBD,Raw,
2,Dmitriy Bolgov,Sub-Juniors,2003,Russia,142.2,,,,260,,,180,180,,,,250,690,120+,M,Дмитрий Болгов,SBD,Raw,
3,Dmitriy Lyalin,Sub-Juniors,2003,Russia,147.85,,,,270,,,,162.5,,,,235,667.5,120+,M,Дмитрий Лялин,SBD,Raw,
4,Kirill Meshkauskas,Sub-Juniors,2005,Russia,129.15,,,,230,,,,162.5,,,,207.5,600,120+,M,Кирилл Мешкаускас,SBD,Raw,
5,Nikita Palamarchuk,Sub-Juniors,2004,Russia,126.9,,,,190,,,,105,,,,210,505,120+,M,Никита Паламарчук,SBD,Raw,
1,Marina Mikova,Juniors,2001,Russia,42.05,,,,60,,,,37.5,,,,90,187.5,43,F,Марина Микова,SBD,Raw,
1,Svetlana Verigina,Juniors,1999,Russia,46.35,,,,112.5,,78,81,81,,,,142.5,336,47,F,Светлана Веригина,SBD,Raw,
2,Elmira Abdullaeva,Juniors,1998,Russia,46.65,,,,115,,,,67.5,,,,135,317.5,47,F,Эльмира Абдуллаева,SBD,Raw,
3,Anastasiya Reprintseva,Juniors,2002,Russia,46.4,,,,97.5,,,,65,,,,142.5,305,47,F,Анастасия Репринцева,SBD,Raw,
4,Kristina Okorokova,Juniors,2001,Russia,46.85,,,,110,,,,65,,,,122.5,297.5,47,F,Кристина Окорокова,SBD,Raw,
5,Yuliya Ksenzova,Juniors,2001,Russia,46.8,,,,115,,,,70,,,,107.5,292.5,47,F,Юлия Ксензова,SBD,Raw,
6,Darya Rusova,Juniors,1999,Russia,45.95,,,,85,,,,47.5,,,,117.5,250,47,F,Дарья Русова,SBD,Raw,
7,Ekaterina Belova,Juniors,2000,Russia,46.65,,,,92.5,,,,55,,,,102.5,250,47,F,Екатерина Белова,SBD,Raw,
8,Alina Fazullina,Juniors,2002,Russia,46.8,,,,80,,,,60,,,,100,240,47,F,Алина Фазуллина,SBD,Raw,
DQ,Elena Shumskaya,Juniors,2000,Russia,46.65,,,,97.5,,,,55,,,,,,47,F,Елена Шумская,SBD,Raw,
1,Valeriya Lescheva,Juniors,2000,Russia,51.55,,,,130,,107.5,112.5,112.5,,,,127.5,370,52,F,Валерия Лещева,SBD,Raw,
2,Diana Gorodchikova,Juniors,2002,Russia,51.95,,,,130,,,,67.5,,,,160,357.5,52,F,Диана Городчикова,SBD,Raw,
3,Valentina Khudyakova,Juniors,1998,Russia,51.4,,,,125,,,,77.5,,,,150,352.5,52,F,Валентина Худякова,SBD,Raw,
4,Anastasiya Obedkova,Juniors,2002,Russia,52,,,,125,,,,65,,,,132.5,322.5,52,F,Анастасия Объедкова,SBD,Raw,
5,Oksana Ilina,Juniors,1998,Russia,50.6,,,,102.5,,,,70,,,,130,302.5,52,F,Оксана Ильина,SBD,Raw,
6,Polina Grosheva,Juniors,1999,Russia,51.1,,,,105,,,,65,,,,110,280,52,F,Полина Грошева,SBD,Raw,
7,Elena Zolotukhina,Juniors,1999,Russia,51.7,,,,100,,,,65,,,,105,270,52,F,Елена Золотухина,SBD,Raw,
DQ,Diana Sautieva,Juniors,2002,Russia,51.65,,,,95,,,,,,,,110,,52,F,Диана Саутиева,SBD,Raw,
1,Ekaterina Nazarova,Juniors,2000,Russia,56.6,,,,135,,,,90,,,,150,375,57,F,Екатерина Назарова,SBD,Raw,
2,Elizaveta Pechenkina,Juniors,2000,Russia,55.65,,,,127.5,,,,72.5,,,,162.5,362.5,57,F,Елизавета Печенкина,SBD,Raw,
3,Darya Morozova,Juniors,2000,Russia,54.5,,,,120,,,,72.5,,,,140,332.5,57,F,Дарья Морозова,SBD,Raw,
4,Darya Nekhtsa,Juniors,2000,Russia,56.65,,,,112.5,,,,72.5,,,,140,325,57,F,Дарья Нехца,SBD,Raw,
5,Vasilina Medvedeva,Juniors,1998,Russia,55.85,,,,115,,,,72.5,,,,130,317.5,57,F,Василина Медведева,SBD,Raw,
6,Larisa Sokolova,Juniors,1999,Russia,56,,,,110,,,,65,,,,125,300,57,F,Лариса Соколова,SBD,Raw,
DQ,Ekaterina Kozelkova,Juniors,1998,Russia,56.75,,,,127.5,,,,,,,,112.5,,57,F,Екатерина Козелкова,SBD,Raw,
1,Darya Vorobyeva,Juniors,2001,Russia,62.75,,,165,165,,,,85,,,175,175,425,63,F,Дарья Воробьева,SBD,Raw,
2,Valeriya Goreeva,Juniors,1999,Russia,62.95,,,,132.5,,,,70,,,,170,372.5,63,F,Валерия Гореева,SBD,Raw,
3,Katerina Malkova,Juniors,2000,Russia,62.6,,,,140,,,,90,,,,140,370,63,F,Катерина Малкова,SBD,Raw,
4,Sofya Kiryukhina,Juniors,1999,Russia,61.45,,,,135,,,,67.5,,,,162.5,365,63,F,Софья Кирюхина,SBD,Raw,
5,Lada Bessonova,Juniors,2001,Russia,62.35,,,,125,,,,80,,,,150,355,63,F,Лада Бессонова,SBD,Raw,
6,Aliya Baymukhametova,Juniors,2000,Russia,62.25,,,,135,,,,80,,,,130,345,63,F,Алия Баймухаметова,SBD,Raw,
7,Anastasiya Bogatenkova,Juniors,1998,Russia,62.05,,,,140,,,,77.5,,,,125,342.5,63,F,Анастасия Богатенкова,SBD,Raw,
8,Yuliya Vasilyeva,Juniors,2000,Russia,61.9,,,,117.5,,,,75,,,,122.5,315,63,F,Юлия Васильева,SBD,Raw,
9,Anna Belskaya,Juniors,2002,Russia,60.7,,,,125,,,,60,,,,112.5,297.5,63,F,Анна Бельская,SBD,Raw,
1,Dinara Matyakubova,Juniors,1999,Russia,72,,,,157.5,,,,90,,,,150,397.5,72,F,Динара Матякубова,SBD,Raw,
2,Arina Drozdova,Juniors,2002,Russia,71.25,,,,117.5,,,,80,,,178,178,375.5,72,F,Арина Дроздова,SBD,Raw,
3,Anna Novikova,Juniors,1999,Russia,67.65,,,,117.5,,,,80,,,,137.5,335,72,F,Анна Новикова,SBD,Raw,
4,Olga Ilina,Juniors,2000,Russia,67.8,,,,120,,,,65,,,,110,295,72,F,Ольга Ильина,SBD,Raw,
DQ,Svetlana Saburova,Juniors,2000,Russia,68.25,,,,,,,,90,,,,140,,72,F,Светлана Сабурова,SBD,Raw,
1,Anastasiya Eskova,Juniors,1998,Russia,74.85,,,,170,,,,90,,,,162.5,422.5,84,F,Анастасия Еськова,SBD,Raw,
2,Anna Vozmilova,Juniors,2001,Russia,74.65,,,,157.5,,,,95,,,,157.5,410,84,F,Анна Возмилова,SBD,Raw,
3,Anastasiya Veber,Juniors,2000,Russia,77.25,,,,150,,,,80,,,,145,375,84,F,Анастасия Вебер,SBD,Raw,
4,Alisa Zakharova,Juniors,2001,Russia,82.65,,,,140,,,,72.5,,,,162.5,375,84,F,Алиса Захарова,SBD,Raw,
5,Yuliya Novikova #4,Juniors,2001,Russia,80.45,,,,147.5,,,,77.5,,,,125,350,84,F,Юлия Новикова,SBD,Raw,
6,Darya Papina,Juniors,2002,Russia,83,,,,125,,,,65,,,,155,345,84,F,Дарья Папина,SBD,Raw,
1,Olesya Lukina,Juniors,1999,Russia,116.8,,,,160,,,,85,,,,165,410,84+,F,Олеся Лукина,SBD,Raw,
1,Matvey Popov,Juniors,2002,Russia,52.45,,,,145,,,,95,,,,160,400,53,M,Матвей Попов,SBD,Raw,
2,Egor Nosach,Juniors,2002,Russia,51.7,,,,145,,,,82.5,,,,155,382.5,53,M,Егор Носач,SBD,Raw,
3,Roman Ivanushkin,Juniors,2001,Russia,51.75,,,,135,,,,87.5,,,,145,367.5,53,M,Роман Иванушкин,SBD,Raw,
4,Daniil Melnikov,Juniors,1998,Russia,51,,,,90,,,,85,,,,115,290,53,M,Даниил Мельников,SBD,Raw,
1,Boris Komissarov,Juniors,1998,Russia,57.8,,,,190,,,145.5,145.5,,,,215,550.5,59,M,Борис Комиссаров,SBD,Raw,
2,Nikita Ermolenko,Juniors,1998,Russia,58.6,,,,175,,,,115,,,,197.5,487.5,59,M,Никита Ермоленко,SBD,Raw,
3,Yaroslav Elfimov,Juniors,2002,Russia,58.2,,,,172.5,,,,122.5,,,,190,485,59,M,Ярослав Елфимов,SBD,Raw,
4,Eduard Kuzmin,Juniors,2002,Russia,58.9,,,,147.5,,,,125,,,,162.5,435,59,M,Эдуард Кузьмин,SBD,Raw,
5,Ivan Khlon,Juniors,1998,Russia,58.25,,,,140,,,,105,,,,170,415,59,M,Иван Хлонь,SBD,Raw,
6,Mikhail Zagaynov,Juniors,2002,Russia,58.5,,,,127.5,,,,97.5,,,,165,390,59,M,Михаил Загайнов,SBD,Raw,
DQ,Daniil Kurilskiy,Juniors,2002,Ukraine,58.1,,,,,,,,,,,,,,59,M,Даниил Курильский,SBD,Raw,
1,Egor Khutorov,Juniors,1999,Russia,65.85,,,,190,,,,142.5,,,,210,542.5,66,M,Егор Хуторов,SBD,Raw,
2,Roman Saburov,Juniors,2001,Russia,64.8,,,,187.5,,,,130,,,,217.5,535,66,M,Роман Сабуров,SBD,Raw,
3,Nikolay Putintsev,Juniors,2001,Russia,65.85,,,,175,,,,117.5,,,,237.5,530,66,M,Николай Путинцев,SBD,Raw,
4,Dmitriy Lagutin,Juniors,2000,Russia,64.85,,,,180,,,,117.5,,,,230,527.5,66,M,Дмитрий Лагутин,SBD,Raw,
5,Artur Mansurov,Juniors,2001,Russia,65.25,,,,192.5,,,,125,,,,195,512.5,66,M,Артур Мансуров,SBD,Raw,
6,Ivan Semenov,Juniors,2002,Russia,62.65,,,,185,,,,112.5,,,,175,472.5,66,M,Иван Семенов,SBD,Raw,
7,Daniil Terekhov,Juniors,2002,Russia,64.5,,,,152.5,,,,100,,,,172.5,425,66,M,Даниил Терехов,SBD,Raw,
8,Nikolay Erekhinskiy,Juniors,1999,Russia,65.3,,,,155,,,,105,,,,150,410,66,M,Николай Ерехинский,SBD,Raw,
9,Yaroslav Kondrashin,Juniors,2001,Russia,63.55,,,,142.5,,,,102.5,,,,155,400,66,M,Ярослав Кондрашин,SBD,Raw,
10,Kirill Stetsenko,Juniors,2002,Russia,65.95,,,,60,,,,60,,,,60,180,66,M,Кирилл Стеценко,SBD,Raw,
1,Aleksey Sergeenko,Juniors,1998,Russia,73.2,,250.5,255,255,,185,195.5,195.5,,,,230,680.5,74,M,Алексей Сергеенко,SBD,Raw,
2,Dmitriy Stepanov,Juniors,2002,Russia,73.4,,,,232.5,,,,145,,,,240,617.5,74,M,Дмитрий Степанов,SBD,Raw,
3,Maksim Vyborov,Juniors,1998,Russia,71.85,,,,245,,,,140,,,,217.5,602.5,74,M,Максим Выборов,SBD,Raw,
4,Vadim Kichuk,Juniors,1998,Russia,72.45,,,,205,,,,157.5,,,,240,602.5,74,M,Вадим Кичук,SBD,Raw,
5,Aleksey Popov #8,Juniors,1999,Russia,73.35,,,,220,,,,135,,,,232.5,587.5,74,M,Алексей Попов,SBD,Raw,
6,Ivan Brazhnikov,Juniors,1998,Russia,73.3,,,,210,,,,122.5,,,,250,582.5,74,M,Иван Бражников,SBD,Raw,
7,Vladimir Burnashov,Juniors,2002,Russia,72.3,,,,210,,,,115,,,,245,570,74,M,Владимир Бурнашов,SBD,Raw,
8,Daniil Mullin,Juniors,2001,Russia,72.9,,,,192.5,,,,155,,,,212.5,560,74,M,Даниил Муллин,SBD,Raw,
9,Ivan Vasilyev,Juniors,2000,Russia,73.75,,,,205,,,,140,,,,215,560,74,M,Иван Васильев,SBD,Raw,
10,Arsen Edaryan,Juniors,2001,Russia,72.2,,,,190,,,,142.5,,,,210,542.5,74,M,Арсен Эдарян,SBD,Raw,
11,Ilya Dolgov,Juniors,1998,Russia,72.3,,,,160,,,,130,,,,190,480,74,M,Илья Долгов,SBD,Raw,
12,Pavel Losev,Juniors,1999,Russia,73.2,,,,167.5,,,,130,,,,165,462.5,74,M,Павел Лосев,SBD,Raw,
13,Elbrus Bayramov,Juniors,2001,Russia,72.55,,,,162.5,,,,115,,,,182.5,460,74,M,Эльбрус Байрамов,SBD,Raw,
14,Nikita Derbedenev,Juniors,2001,Russia,69.4,,,,157.5,,,,117.5,,,,170,445,74,M,Никита Дербеденев,SBD,Raw,
15,Dmitriy Trukhin,Juniors,2001,Russia,72.25,,,,152.5,,,,105,,,,185,442.5,74,M,Дмитрий Трухин,SBD,Raw,
DQ,Evgeniy Shabanov,Juniors,2001,Russia,73.2,,,,197.5,,,,152.5,,,,,,74,M,Евгений Шабанов,SBD,Raw,
DQ,Ruslan Kostylev,Juniors,2002,Russia,72.5,,,,,,,,,,,,,,74,M,Руслан Костылев,SBD,Raw,
DQ,Denis Stolnikov,Juniors,2002,Russia,70.25,,,,,,,,,,,,,,74,M,Денис Стольников,SBD,Raw,
1,Anatoliy Bannov,Juniors,2002,Russia,82,,,,240,,,,162.5,,,,245,647.5,83,M,Анатолий Баннов,SBD,Raw,
2,Oleg Shiryaev,Juniors,1999,Russia,82.9,,,,225,,,,167.5,,,,242.5,635,83,M,Олег Ширяев,SBD,Raw,
3,Vladislav Pravdin,Juniors,2002,Russia,82.45,,,,230,,,,140,,,,262.5,632.5,83,M,Владислав Правдин,SBD,Raw,
4,Denis Kvitko,Juniors,1999,Russia,82,,,,215,,,,165,,,,250,630,83,M,Денис Квитко,SBD,Raw,
5,Sergey Malgin,Juniors,1998,Russia,81.9,,,,210,,,,167.5,,,,250,627.5,83,M,Сергей Мальгин,SBD,Raw,
6,Kirill Kalinin,Juniors,1998,Russia,80.95,,,,217.5,,,,145,,,,247.5,610,83,M,Кирилл Калинин,SBD,Raw,
7,Dmitriy Voloboev,Juniors,1999,Russia,82.35,,,,220,,,,152.5,,,,237.5,610,83,M,Дмитрий Волобоев,SBD,Raw,
8,Dmitriy Tyrinov,Juniors,1998,Russia,82.6,,,,220,,,,150,,,,240,610,83,M,Дмитрий Тыринов,SBD,Raw,
9,Dmitriy Martynenko,Juniors,2002,Russia,81.1,,,,230,,,,150,,,,210,590,83,M,Дмитрий Мартыненко,SBD,Raw,
10,Aleksandr Morozov,Juniors,2000,Russia,77.1,,,,210,,,,125,,,,230,565,83,M,Александр Морозов,SBD,Raw,
11,Aleksey Shurygin,Juniors,2000,Russia,81.75,,,,182.5,,,,130,,,,200,512.5,83,M,Алексей Шурыгин,SBD,Raw,
12,Egor Ananichev,Juniors,2001,Russia,82.15,,,,185,,,,120,,,,200,505,83,M,Егор Ананичев,SBD,Raw,
DQ,Vladislav Bezverkhiy,Juniors,2000,Ukraine,82.55,,,,,,,,,,,,,,83,M,Владислав Безверхий,SBD,Raw,
1,Denis Tumanov,Juniors,1998,Russia,91.05,,,,250,,,,180,,,,270,700,93,M,Денис Туманов,SBD,Raw,
2,Ilya Moshkin,Juniors,2000,Russia,92.4,,,,260,,,,177.5,,,,250,687.5,93,M,Илья Мошкин,SBD,Raw,
3,Vyacheslav Luchinin,Juniors,2001,Russia,92.3,,,,255,,,,177.5,,,,250,682.5,93,M,Вячеслав Лучинин,SBD,Raw,
4,Pavel Kalmykov,Juniors,1999,Russia,91.45,,,,220,,,,155,,,,275,650,93,M,Павел Калмыков,SBD,Raw,
5,Aleksandr Barkov,Juniors,1998,Russia,91.8,,,,240,,,,145,,,,260,645,93,M,Александр Барков,SBD,Raw,
6,Stanislav Ryzhov,Juniors,2000,Russia,85.95,,,,217.5,,,,167.5,,,,245,630,93,M,Станислав Рыжов,SBD,Raw,
7,Dmitriy Konnov,Juniors,2002,Russia,91.45,,,,220,,,,145,,,,260,625,93,M,Дмитрий Коннов,SBD,Raw,
8,Dmitriy Pashigrev,Juniors,1998,Russia,92.4,,,,200,,,,172.5,,,,245,617.5,93,M,Дмитрий Пашигрев,SBD,Raw,
9,Magerram Magerramov #2,Juniors,2001,Russia,90.75,,,,220,,,,155,,,,230,605,93,M,Магеррам Магеррамов,SBD,Raw,
10,Anton Larionov,Juniors,2001,Russia,84.7,,,,205,,,,130,,,,222.5,557.5,93,M,Антон Ларионов,SBD,Raw,
11,Maksim Nefedov,Juniors,2000,Russia,91.45,,,,185,,,,135,,,,210,530,93,M,Максим Нефедов,SBD,Raw,
12,Ilya Yunichev,Juniors,2001,Russia,91.6,,,,175,,,,130,,,,220,525,93,M,Илья Юничев,SBD,Raw,
DQ,Danis Papikyan,Juniors,2002,Russia,91,,,,250,,,,170,,,,,,93,M,Данис Папикян,SBD,Raw,
1,Mikhail Deryugin,Juniors,1998,Russia,103.8,,,,277.5,,,,195,,,,270,742.5,105,M,Михаил Дерюгин,SBD,Raw,
2,Aleksey Kosyanov,Juniors,1998,Russia,103.3,,,,260,,,,190,,,,270,720,105,M,Алексей Косьянов,SBD,Raw,
3,Timofey Kuzmin,Juniors,2002,Russia,103.3,,,,265,,,,145,,,,300,710,105,M,Тимофей Кузьмин,SBD,Raw,
4,Kirill Mogilnikov,Juniors,1998,Russia,98.5,,,,262.5,,,,165,,,,270,697.5,105,M,Кирилл Могильников,SBD,Raw,
5,Aleksandr Dubasov,Juniors,2002,Russia,103.2,,,,245,,,,195,,,,220,660,105,M,Александр Дубасов,SBD,Raw,
6,Andrey Osipov,Juniors,1999,Russia,99.35,,,,215,,,,145,,,,225,585,105,M,Андрей Осипов,SBD,Raw,
7,Artem Burdukovskiy,Juniors,2001,Russia,97.1,,,,200,,,,130,,,,240,570,105,M,Артем Бурдуковский,SBD,Raw,
1,Aleksandr Kuzmin,Juniors,1998,Russia,119.3,,,,300,,,,175,,,,330,805,120,M,Александр Кузьмин,SBD,Raw,
2,Valentin Seroshtanov,Juniors,1998,Ukraine,113,,,,260,,,,165,,,,265,690,120,M,Валентин Сероштанов,SBD,Raw,
3,Nikita Morozov,Juniors,2002,Russia,109.55,,,,222.5,,,,165,,,,260,647.5,120,M,Никита Морозов,SBD,Raw,
4,Pavel Sakharov,Juniors,2002,Russia,112.8,,,,180,,,,140,,,,210,530,120,M,Павел Сахаров,SBD,Raw,
1,Bogdan Prokopev,Juniors,1998,Russia,130.15,,338,343,343,,,,205,,,,307.5,855.5,120+,M,Богдан Прокопьев,SBD,Raw,
2,Kirill Chernyaev,Juniors,1998,Russia,124,,,,295,,,,215,,,,300,810,120+,M,Кирилл Черняев,SBD,Raw,
3,Pavel Leonov,Juniors,1999,Russia,126.6,,,,225,,,,125,,,,250,600,120+,M,Павел Леонов,SBD,Raw,
4,Danila Kozlov,Juniors,2002,Russia,120.1,,,,225,,,,110,,,,245,580,120+,M,Данила Козлов,SBD,Raw,
