WeightClassKg,Name,State,Country,BodyweightKg,Best3SquatKg,Squat4Kg,Best3BenchKg,Best3DeadliftKg,Deadlift4Kg,TotalKg,Place,Event,Equipment,Division,Sex,AgeRange
52,Samantha Cerqueira,,Scotland,48.9,55,,30,82.5,,167.5,1,SBD,Single-ply,U20,F,18.5-19.5
60,Jenna O'Neil,,Scotland,57.5,60,,32.5,90,95,182.5,1,SBD,Single-ply,U20,F,18.5-19.5
67.5,Christina McSherry,,Scotland,65,125,,55,137.5,,317.5,1,SBD,Single-ply,U20,F,18.5-19.5
75,Stacey Carruthers,,Scotland,68.4,105,110,60,145,150,310,1,SBD,Single-ply,U23,F,20.5-22.5
90,Cheryl Davidson,,Scotland,83,100,,60,150,,310,1,SBD,Single-ply,U23,F,20.5-22.5
90,Mike Hart,,Scotland,84.1,240,,140,260,,640,1,SBD,Single-ply,U20,M,18.5-19.5
67.5,Michael Ferguson #4,,Scotland,61.5,160,,107.5,160,,427.5,1,SBD,Single-ply,U23,M,20.5-22.5
82.5,Rab Beaton,,Scotland,79.6,245,,150,210,,605,1,SBD,Single-ply,U23,M,20.5-22.5
82.5,Stuart Thomson #2,,Scotland,81.1,180,,105,215,,500,2,SBD,Single-ply,U23,M,20.5-22.5
